Linear Regression Data Analysis - Project 1
…
Now that the values are mapped lets add it to the rhm tibble and remove the existing non-numeric column ocean_proximity

rhm$ocean_proximity_mapped = output_var[rhm$ocean_proximity]
rhm_numeric = subset(rhm, select= -c(ocean_proximity))

There are few NA values in the dataset and we remove it.

rhm_numeric <- na.omit(rhm_numeric)

After removing the NA values, the dataset is reduce to 20433x10 values (Only a few of the records are removed from the dataset and assuming it doesnt affect the performance we continue)

rhm_numeric

## # A tibble: 20,433 x 10
##    longitude latitude housing_median_~ total_rooms total_bedrooms population
##        <dbl>    <dbl>            <dbl>       <dbl>          <dbl>      <dbl>
##  1     -122.     37.9               41         880            129        322
##  2     -122.     37.9               21        7099           1106       2401
##  3     -122.     37.8               52        1467            190        496
##  4     -122.     37.8               52        1274            235        558
##  5     -122.     37.8               52        1627            280        565
##  6     -122.     37.8               52         919            213        413
##  7     -122.     37.8               52        2535            489       1094
##  8     -122.     37.8               52        3104            687       1157
##  9     -122.     37.8               42        2555            665       1206
## 10     -122.     37.8               52        3549            707       1551
## # ... with 20,423 more rows, and 4 more variables: households <dbl>,
## #   median_income <dbl>, median_house_value <dbl>, ocean_proximity_mapped <int>
…
